[ 
  {
    "nombre": "Acerca de mi",
    "redirect": "/inicio"
  },
  {
    "nombre": "Agenda",
    "redirect": "/inicio/agenda"
  },
  {
    "nombre": "Contacto",
    "redirect": "/inicio/contacto"
  }
]
